Tools to simulate data set to teach Statical Models and ML Algorithms • klassets
…
Compare models in a classifications task

df <- sim_response_xy(relationship = function(x, y) sin(x*pi) > sin(y*pi))

df
#> # A tibble: 500 × 3
#>    response       x       y
#>    <fct>      <dbl>   <dbl>
#>  1 FALSE    -0.681   0.707 
#>  2 FALSE    -0.711   0.332 
#>  3 FALSE    -0.702   0.467 
#>  4 TRUE      0.0289 -0.371 
#>  5 TRUE     -0.0143  0.335 
#>  6 TRUE      0.233  -0.0722
#>  7 FALSE    -0.105   0.301 
#>  8 FALSE    -0.889   0.572 
#>  9 FALSE    -0.989   0.803 
#> 10 FALSE    -0.556   0.0548
#> # … with 490 more rows
…
