Fit Linear model to klassets_xy object — fit_linear_model • klassets
…
stepwise
A logical value to indicate to perform stepwise.

verbose
A logical value to indicate to show the trace of the
stepwise procedure.

    Examples

df <- sim_xy()

df
#> # A tibble: 500 × 2
#>        x     y
#>    <dbl> <dbl>
#>  1  1.97  3.23
#>  2  2.08  3.82
#>  3  2.31  4.10
#>  4  2.49  4.42
#>  5  2.50  4.65
#>  6  2.60  4.04
#>  7  2.77  4.93
#>  8  2.88  4.25
#>  9  2.96  3.73
#> 10  2.98  4.85
#> # ℹ 490 more rows

dflm <- fit_linear_model(df)

dflm
#> # A tibble: 500 × 3
#>        x     y prediction
#>    <dbl> <dbl>      <dbl>
#>  1  1.97  3.23       4.02
#>  2  2.08  3.82       4.07
#>  3  2.31  4.10       4.18
#>  4  2.49  4.42       4.27
#>  5  2.50  4.65       4.28
#>  6  2.60  4.04       4.32
#>  7  2.77  4.93       4.41
#>  8  2.88  4.25       4.46
#>  9  2.96  3.73       4.51
#> 10  2.98  4.85       4.52
#> # ℹ 490 more rows
…
