Generate quasi Anscombe data sets Type 5: Heteroskedasticity — sim_quasianscombe_set_5 • klassets
…
    Details

    This function will take residuals $e_i$ and then get $e'_i = e_i * fun(i)$
and then rescale the $e'_i$ to the range of $e_i$.

    Examples

df <- sim_quasianscombe_set_1()

dataset5 <- sim_quasianscombe_set_5(df)

dataset5
#> # A tibble: 100 × 2
#>        x     y
#>    <dbl> <dbl>
#>  1  3.18  4.61
#>  2  3.26  4.74
#>  3  3.29  4.61
#>  4  3.39  4.72
#>  5  3.44  4.82
#>  6  3.44  5.10
#>  7  3.68  5.19
#>  8  3.76  4.68
#>  9  3.82  4.99
#> 10  3.82  4.85
#> # … with 90 more rows
…
