Generate quasi Anscombe data sets Type 1 — sim_quasianscombe_set_1 • klassets
…
    Details

    This is the typical first example when regression analysis is taught.

Internally this is the same procedure of sim_xy.

    Examples

df <- sim_quasianscombe_set_1()

df
#> # A tibble: 500 × 2
#>        x     y
#>    <dbl> <dbl>
#>  1  2.22  3.65
#>  2  2.29  4.97
#>  3  2.60  3.40
#>  4  2.76  4.51
#>  5  2.83  3.95
#>  6  3.05  3.83
#>  7  3.07  5.01
#>  8  3.07  4.90
#>  9  3.14  4.61
#> 10  3.15  4.76
#> # ℹ 490 more rows
…
