…
- residual_factor:

  Numeric value to multiply residual to modify their variance.

## Examples

``` r

df <- sim_quasianscombe_set_1()

dataset2 <- sim_quasianscombe_set_2(df)

dataset2
#> # A tibble: 500 × 2
#>        x     y
#>    <dbl> <dbl>
#>  1  1.84 14.1 
#>  2  2.08 12.4 
#>  3  2.10 12.0 
#>  4  2.21 11.3 
#>  5  2.49 10.0 
#>  6  2.67  9.09
#>  7  2.96  7.95
#>  8  3.04  7.47
#>  9  3.10  7.50
#> 10  3.11  7.19
#> # ℹ 490 more rows
…
