Generate quasi Anscombe data sets Type 3: Extreme values (a.k.a Outliers) — sim_quasianscombe_set_3 • klassets
…
Take prop% values from the greater 2*prop x values and modify the
related y value to get the original estimation of beta1

Apply residual_factor factor to residual to get minor variance and
better visual impression of the outliers effect.

    Examples

df <- sim_quasianscombe_set_1()

dataset3 <- sim_quasianscombe_set_3(df)

dataset3
#> # A tibble: 500 × 2
#>        x     y
#>    <dbl> <dbl>
#>  1  2.17  4.36
#>  2  2.26  4.70
#>  3  2.37  4.81
#>  4  2.39  4.86
#>  5  2.41  4.81
#>  6  2.46  4.62
#>  7  2.59  4.75
#>  8  2.66  4.78
#>  9  2.68  4.64
#> 10  2.83  4.67
#> # ℹ 490 more rows
…
