Clustering • klassets
…
Now we can use gganimate package using object result
from kmeans_iterations due have the classification for
every point in every step:

kmi
#> $points
#> # A tibble: 2,988 × 6
#>    iteration    id group      x     y cluster
#>        <int> <int> <chr>  <dbl> <dbl> <fct>  
#>  1         1     1 1      4.53   8.60 NA     
#>  2         1     2 1      5.57   6.42 NA     
#>  3         1     3 1      2.62   6.28 NA     
#>  4         1     4 1      4.82   7.41 NA     
#>  5         1     5 1      0.583  2.50 NA     
#>  6         1     6 1     -5.49   8.30 NA     
#>  7         1     7 1      3.59   9.44 NA     
#>  8         1     8 1     -0.224  3.95 NA     
#>  9         1     9 1     -2.62  10.7  NA     
#> 10         1    10 1     -0.695  8.74 NA     
#> # ℹ 2,978 more rows
…
