Quasi Anscombe data sets • klassets
…
dfcoef <- df_mods |> 
  dplyr::select(set, parameters) |> 
  tidyr::unnest(cols = c(parameters)) |> 
  dplyr::mutate(sig = stars.pval(p.value))

dfcoef
#> # A tibble: 22 × 7
#>    set      term        estimate std.error statistic  p.value sig  
#>    <chr>    <chr>          <dbl>     <dbl>     <dbl>    <dbl> <chr>
#>  1 Original (Intercept)     2.74    0.276       9.93 1.74e-16 ***  
#>  2 Original x               2.04    0.0533     38.3  1.01e-60 ***  
#>  3 Set 2 v1 (Intercept)     2.74    1.18        2.33 2.20e- 2 *    
#>  4 Set 2 v1 x               2.04    0.228       8.97 2.11e-14 ***  
#>  5 Set 2 v2 (Intercept)     2.74    0.898       3.05 2.94e- 3 **   
#>  6 Set 2 v2 x               2.04    0.174      11.8  1.95e-20 ***  
#>  7 Set 3 v1 (Intercept)     2.74    1.15        2.37 1.97e- 2 *    
#>  8 Set 3 v1 x               2.04    0.223       9.14 8.86e-15 ***  
#>  9 Set 3 v2 (Intercept)     2.74    1.05        2.61 1.06e- 2 *    
#> 10 Set 3 v2 x               2.04    0.203      10.0  9.74e-17 ***  
#> # ℹ 12 more rows
…
