Regression • klassets
…
A function to sample error values like
purrr::partial(stats::rnorm, sd = 0.5).

library(klassets)
library(ggplot2)
library(patchwork)

set.seed(123)

df_default <- sim_xy()

df_default
#> # A tibble: 500 × 2
#>        x     y
#>    <dbl> <dbl>
#>  1  2.34  3.87
#>  2  2.36  3.68
#>  3  2.53  4.78
#>  4  2.69  4.72
#>  5  2.78  3.63
#>  6  2.84  4.37
#>  7  2.95  4.03
#>  8  2.95  3.44
#>  9  2.95  4.55
#> 10  2.99  4.45
#> # ℹ 490 more rows
…
Fit regression algorithms

Linear Regression

This function uses stats::lm to fit a model.

df_lr <- fit_linear_model(df)

df_lr
#> # A tibble: 1,000 × 3
#>          x     y prediction
#>      <dbl> <dbl>      <dbl>
#>  1 0.00352  2.66       5.56
#>  2 0.00354  2.92       5.56
#>  3 0.00499  2.65       5.56
#>  4 0.00540  3.42       5.56
#>  5 0.00804  3.72       5.55
#>  6 0.00872  4.24       5.54
#>  7 0.00934  3.37       5.54
#>  8 0.0101   2.77       5.54
#>  9 0.0103   3.72       5.54
#> 10 0.0103   3.66       5.54
#> # ℹ 990 more rows
…
